{
	"carousel": [
	    {
	    	"id": 1,
	    	"image": "img/crackdown-3.png",
	    	"company": "BOOM",
	    	"name": "CRACKDOWN"
	    },
	    {
	    	"id": 2,
	    	"image": "img/metro-exodus.png",
	    	"company": "MUTANT<br>HUNTING",
	    	"name": "METRO EXODUS"
	    },
	    {
	    	"id": 3,
	    	"image": "img/kingdom-heart-3.png",
	    	"company": "MAGIC",
	    	"name": "KINGDOM HEARTS"
	    },
	    {
	    	"id": 4,
	    	"image": "img/crackdown-3.png",
	    	"company": "BOOM",
	    	"name": "CRACKDOWN"
	    },
	    {
	    	"id": 5,
	    	"image": "img/metro-exodus.png",
	    	"company": "MUTANT<br>HUNTING",
	    	"name": "METRO EXODUS"
	    },
	    {
	    	"id": 6,
	    	"image": "img/kingdom-heart-3.png",
	    	"company": "MAGIC",
	    	"name": "KINGDOM HEARTS"
	    }
	],
	"boxes": [
	    {
	    	"id": 1,
	    	"image": "img/game-items/KingdomHearts3_box.png",
	    	"alt": "KINGDOM HEARTS III logo",
	    	"name": "EXPLORE KINGDOM HEARTS III",
	    	"href": "#"
	    },
	    {
	    	"id": 2,
	    	"image": "img/game-items/Crackdown3_box.png",
	    	"alt": "Crackdown 3 logo",
	    	"name": "EXPLORE CRACKDOWN 3",
	    	"href": "#"
	    },
	    {
	    	"id": 3,
	    	"image": "img/game-items/MetroExodus_box.png",
	    	"alt": "The official box art for Metro Exodus",
	    	"name": "Metro Exodus",
	    	"href": "#"
	    },
	    {
	    	"id": 4,
	    	"image": "img/game-items/DevilMayCry5_box.png",
	    	"alt": "Devil May Cry 5 logo",
	    	"name": "EXPLORE DEVIL MAY CRY 5",
	    	"href": "#"
	    },
	    {
	    	"id": 5,
	    	"image": "img/game-items/TC_Division2_box.png",
	    	"alt": "The official box art for Tom Clancy's The Division",
	    	"name": "Tom Clancy’s The Division 2",
	    	"href": "#"
	    },
	    {
	    	"id": 6,
	    	"image": "img/game-items/Anthem_box.png",
	    	"alt": "The official box art for Anthem",
	    	"name": "Anthem",
	    	"href": "#"
	    },
	    {
	    	"id": 7,
	    	"image": "img/game-items/Below_box.png",
	    	"alt": "The official box art for Below",
	    	"name": "BELOW",
	    	"href": "#"
	    },
	    {
	    	"id": 8,
	    	"image": "img/game-items/JumpForce_box.png",
	    	"alt": "The official box art for Jump Force",
	    	"name": "Jump Force",
	    	"href": "#"
	    },
	    {
	    	"id": 9,
	    	"image": "img/game-items/Battlefield4_box.png",
	    	"alt": "The official box art for Battlefield V",
	    	"name": "Battlefield V",
	    	"href": "#"
	    },
	    {
	    	"id": 10,
	    	"image": "img/game-items/ShadowTombRaider_box.png",
	    	"alt": "The official box art for Shadow of the Tomb Raider",
	    	"name": "Shadow of the Tomb Raider",
	    	"href": "#"
	    },
	    {
	    	"id": 11,
	    	"image": "img/game-items/Fallout76_box.png",
	    	"alt": "The official box art for Fallout 76",
	    	"name": "Fallout 76",
	    	"href": "#"
	    },
	    {
	    	"id": 12,
	    	"image": "img/game-items/NBA2K2019_box.png",
	    	"alt": "The official box art for NBA2K19",
	    	"name": "NBA 2K19",
	    	"href": "#"
	    },
	    {
	    	"id": 13,
	    	"image": "img/game-items/ForzaHorizon4_box.png",
	    	"alt": "The official box art for Forza Horizon 4",
	    	"name": "Forza Horizon 4",
	    	"href": "#"
	    }
	]
}